Getting started with Pando • Pando
…
Here, we use the motifs provided by Pando, but constrain them to only contain genes involved in patterning:

data('motifs')
data('motif2tf')
patterning_genes <- read_tsv('patterning_genes.tsv')

pattern_tfs <- patterning_genes %>% 
    filter(type=='Transcription factor') %>% 
    pull(symbol)
motif2tf_use <- motif2tf %>%
    filter(tf %in% pattern_tfs)
motifs_use <- motifs[unique(motif2tf_use$motif)]
motif2tf_use

## # A tibble: 216 x 8
##    motif       tf    origin gene_id         family name  symbol motif_tf
##    <chr>       <chr> <chr>  <chr>           <chr>  <chr> <chr>  <lgl>   
##  1 M01722_2.00 HEYL  CIS-BP ENSG00000163909 bHLH   <NA>  <NA>   NA      
##  2 M02790_2.00 HEYL  CIS-BP ENSG00000163909 bHLH   <NA>  <NA>   NA      
##  3 M02791_2.00 HEYL  CIS-BP ENSG00000163909 bHLH   <NA>  <NA>   NA      
##  4 M04131_2.00 HEYL  CIS-BP ENSG00000163909 bHLH   <NA>  <NA>   NA      
##  5 M04132_2.00 HEYL  CIS-BP ENSG00000163909 bHLH   <NA>  <NA>   NA      
##  6 M04133_2.00 HEYL  CIS-BP ENSG00000163909 bHLH   <NA>  <NA>   NA      
##  7 M04134_2.00 HEYL  CIS-BP ENSG00000163909 bHLH   <NA>  <NA>   NA      
##  8 M08714_2.00 TAL2  CIS-BP ENSG00000186051 bHLH   <NA>  <NA>   NA      
##  9 M08734_2.00 TAL2  CIS-BP ENSG00000186051 bHLH   <NA>  <NA>   NA      
## 10 M08759_2.00 TAL2  CIS-BP ENSG00000186051 bHLH   <NA>  <NA>   NA      
## # … with 206 more rows
…
infer_grn() has many more parameters to choose different models or tweak the association between peaks and genes, but we’ll go into this in another vignette.

The inferred Network object can be accessed with GetNetwork()

GetNetwork(muo_data)

## A Network object
## with 57 TFs and 122 target genes

and the parameters of the models can be inspected with coef(). This returns a dataframe coefficients (estimate) and p-values (pval) for each TF/region-target gene pair:

coef(muo_data)

## # A tibble: 3,804 x 10
##    tf     target region  term   estimate std_err statistic    pval   padj   corr
##    <chr>  <chr>  <chr>   <chr>     <dbl>   <dbl>     <dbl>   <dbl>  <dbl>  <dbl>
##  1 DMRTA1 IRS4   chrX-1… chrX_…  0.0417   0.0157    2.65   0.00801 0.0440  0.128
##  2 DMRTA1 IRS4   chrX-1… DMRTA…  0.0155   0.0184    0.844  0.399   0.671   0.128
##  3 DMRTA1 IRS4   chrX-1… DMRTA…  0.0499   0.0237    2.10   0.0354  0.138   0.128
##  4 BNC2   FGF13  chrX-1… chrX_… -0.0111   0.0214   -0.521  0.602   0.814  -0.143
##  5 BNC2   FGF13  chrX-1… BNC2:… -0.0110   0.0237   -0.465  0.642   0.840  -0.143
##  6 ID3    FGF13  chrX-1… chrX_… -0.0181   0.0220   -0.821  0.412   0.685   0.125
##  7 ID3    FGF13  chrX-1… ID3:c…  0.0519   0.0477    1.09   0.277   0.555   0.125
##  8 EMX2   FGF13  chrX-1… chrX_…  0.00191  0.0549    0.0347 0.972   0.993   0.120
##  9 OTX2   FGF13  chrX-1… chrX_…  0.0844   0.0342    2.47   0.0137  0.0669  0.106
## 10 ID3    FGF13  chrX-1… ID3:c…  0.00820  0.0220    0.373  0.709   0.879   0.125
## # … with 3,794 more rows
…
muo_data <- find_modules(
    muo_data, 
    p_thresh = 0.1,
    nvar_thresh = 2, 
    min_genes_per_module = 1, 
    rsq_thresh = 0.05
)

The Modules object can be accessed with NetworkModules(). The meta slot contains meta data about the module network and lists with feature sets for each TF can be accessed in the features slot.

modules <- NetworkModules(muo_data) 
modules@meta

## # A tibble: 330 x 9
## # Groups:   target, tf [330]
##    tf    target estimate n_regions n_genes n_tfs regions           pval     padj
##    <chr> <chr>     <dbl>     <int>   <int> <int> <chr>            <dbl>    <dbl>
##  1 BNC2  BAMBI    0.395         13      28    10 chr10-285331… 1.57e-18 5.26e-17
##  2 BNC2  BMP4     0.636         18      28     9 chr14-535716… 2.37e-11 5.94e-10
##  3 BNC2  BMP5     0.327          8      28     8 chr6-5569415… 2.60e-24 1.01e-22
##  4 BNC2  BMPER    0.450         17      28    13 chr7-3345788… 1.59e- 9 3.48e- 8
##  5 BNC2  DMRTA1  -0.110          6      28     6 chr9-2180250… 1.77e- 5 2.19e- 4
##  6 BNC2  EMX2    -0.112         12      28    10 chr10-117139… 4.72e- 3 2.91e- 2
##  7 BNC2  FEZF2   -0.0670         7      28     6 chr3-6287628… 1.24e- 3 9.82e- 3
##  8 BNC2  FOS      0.0681         7      28     6 chr14-759824… 8.14e- 3 4.45e- 2
##  9 BNC2  FOXF1    0.130          9      28     4 chr16-864943… 2.52e-10 5.90e- 9
## 10 BNC2  HOXB1    0.433         24      28     7 chr17-482253… 2.24e- 7 3.90e- 6
## # … with 320 more rows
…
